…
``` r
setwd("./data/")
patient_df <- tibble(filenames = list.files()) %>%
  mutate(weekly_data = map(filenames, read_csv)) %>%
  unnest() %>%
  mutate(arm = substring(filenames, 1, 3),
         subject_id  = substring(filenames, 5, 6)) %>%
  gather(week, measure, 2:9) %>%
  mutate(week = as.numeric(str_replace(week, "week_","")))
patient_df
```

    ## # A tibble: 160 x 5
    ##    filenames  arm   subject_id  week measure
    ##    <chr>      <chr> <chr>      <dbl>   <dbl>
    ##  1 con_01.csv con   01             1    0.2 
    ##  2 con_02.csv con   02             1    1.13
    ##  3 con_03.csv con   03             1    1.77
    ##  4 con_04.csv con   04             1    1.04
    ##  5 con_05.csv con   05             1    0.47
    ##  6 con_06.csv con   06             1    2.37
    ##  7 con_07.csv con   07             1    0.03
    ##  8 con_08.csv con   08             1   -0.08
    ##  9 con_09.csv con   09             1    0.08
    ## 10 con_10.csv con   10             1    2.14
    ## # ... with 150 more rows
…
